{
        "id": "87ac247a-2198-4b96-bbc0-45853c37f25b",
        "pic": "X",
        "picks": [
            {
                "event": "35796f67-eefb-478c-8fb9-b882dd835a2a",
                "opponent": "fc0c0686-1d50-40c2-9e46-a1fbb7d8affd",
                "picks": [
                    {
                        "method": "decision",
                        "round": "5",
                        "winner": "98ba406b-e226-41a8-a56c-62779729182a"
                    },
                    {
                        "method": "decision",
                        "round": "3",
                        "winner": "ffc3f8d3-78de-4e44-a02f-2addb804261d"
                    },
                    {
                        "method": "tko",
                        "round": "1",
                        "winner": "65a7acdf-d075-4de0-a5df-3b47e1830087"
                    },
                    {
                        "method": "decision",
                        "round": "3",
                        "winner": "afbae1bc-e601-472d-9669-8c24650158c0"
                    },
                    {
                        "method": "tko",
                        "round": "1",
                        "winner": "4dcfe369-2887-47ba-a58e-5fd11c6cfc1a"
                    },
                    {
                        "method": "decision",
                        "round": "3",
                        "winner": "e6bafbec-1d42-4d2f-86e8-72f7ae94fb21"
                    },
                    {
                        "method": "decision",
                        "round": "3",
                        "winner": "6ff67fcc-97bf-4a3f-bd38-28a821766165"
                    },
                    {
                        "method": "tko",
                        "round": "1",
                        "winner": "a2a875fd-52e4-49bc-bb2f-235c6398e449"
                    },
                    {
                        "method": "submission",
                        "round": "2",
                        "winner": "64940458-d894-46bf-8cdc-5e3c0b25ce6a"
                    },
                    {
                        "method": "tko",
                        "round": "1",
                        "winner": "6a431ede-d0a1-4ec0-b525-f9eec368cade"
                    },
                    {
                        "method": "decision",
                        "round": "3",
                        "winner": "230b8fb4-70be-4ee8-aeb7-9b9376e74fd9"
                    }
                ],
                "result": "loss",
                "totalPoints": 1550
            },
            {
                "event": "664f5033-552d-4d85-b36b-68e498d97984",
                "opponent": "30781090-c9a9-4032-b958-41d6bf8a81bb",
                "picks": [
                    {
                        "method": "tko",
                        "round": "1",
                        "winner": "ac450245-b944-483b-add7-c00604c88853"
                    },
                    {
                        "method": "decision",
                        "round": "3",
                        "winner": "59a47396-bd1d-4fc7-88c3-8d308955f4fb"
                    },
                    {
                        "method": "decision",
                        "round": "3",
                        "winner": "b1e3bb66-b551-4260-b4ed-8fbcd6ba91b5"
                    },
                    {
                        "method": "decision",
                        "round": "3",
                        "winner": "b9e53c3d-0705-46f6-a12c-150a1763786a"
                    },
                    {
                        "method": "decision",
                        "round": "3",
                        "winner": "e81b73f2-9ef7-45cd-a1ae-56c06492f31e"
                    },
                    {
                        "method": "tko",
                        "round": "1",
                        "winner": "68242d74-0246-49f9-b17f-1f9e19ca9b4a"
                    },
                    {
                        "method": "decision",
                        "round": "3",
                        "winner": "3709244a-61d0-4383-8553-9969d61b7132"
                    },
                    {
                        "method": "decision",
                        "round": "3",
                        "winner": "a9edf25b-cf4b-4abb-a82c-af2043139f41"
                    },
                    {
                        "method": "decision",
                        "round": "3",
                        "winner": "bb4fab52-3bda-4000-b114-3626f45ce06d"
                    },
                    {
                        "method": "decision",
                        "round": "3",
                        "winner": "629ccdf4-d039-4766-9f38-4ac64eaab026"
                    },
                    {
                        "method": "decision",
                        "round": "3",
                        "winner": "333ca094-852c-48c1-b2e2-0dfaf3657d43"
                    },
                    {
                        "method": "decision",
                        "round": "3",
                        "winner": "7483400b-03b7-4103-8b8f-9c83809e5b05"
                    }
                ],
                "result": "loss",
                "totalPoints": 1950
            },
            {
                "event": "c5add5a0-85bb-4fa5-92e0-6ccb667aeb19",
                "opponent": "aa7f2540-36d9-4537-8853-9a0bca25e974",
                "picks": [
                    {
                        "method": "decision",
                        "round": "5",
                        "winner": "30f4cadc-fe88-4cd6-8d12-b6dfb2629c0e"
                    },
                    {
                        "method": "tko",
                        "round": "1",
                        "winner": "579aaba0-7a2a-45ac-9897-89d247f6dede"
                    },
                    {
                        "method": "decision",
                        "round": "3",
                        "winner": "d25747b0-18c3-4ca4-a1ed-d38b976a7fa2"
                    },
                    {
                        "method": "decision",
                        "round": "3",
                        "winner": "bb2f6282-44e2-4c02-ab10-9acc75e56c5b"
                    },
                    {
                        "method": "tko",
                        "round": "1",
                        "winner": "0055251b-0a09-4f7e-938c-61e998b0fd2b"
                    },
                    {
                        "method": "decision",
                        "round": "3",
                        "winner": "d34005ca-8a97-48fc-82bf-4632806e5509"
                    },
                    {
                        "method": "decision",
                        "round": "3",
                        "winner": "8362d772-b5e0-4a63-a92f-a5ca703a26a3"
                    },
                    {
                        "method": "decision",
                        "round": "3",
                        "winner": "2e4d255f-1594-42d8-8d4e-8cdddfef3e03"
                    },
                    {
                        "method": "decision",
                        "round": "3",
                        "winner": "ed80af93-5602-457a-b69a-4827117ed9a8"
                    },
                    {
                        "method": "decision",
                        "round": "3",
                        "winner": "319e2131-53ec-492a-a754-f4b7a48cdf99"
                    },
                    {
                        "method": "decision",
                        "round": "3",
                        "winner": "8320d914-586d-441b-9ec9-198809719505"
                    },
                    {
                        "method": "decision",
                        "round": "3",
                        "winner": "8cbbf90e-f8ec-4830-8e88-1c21e20bfc35"
                    }
                ],
                "result": "win",
                "totalPoints": 1650
            },
            {
                "event": "453cda42-dedb-4f3e-a8c3-3e52efec154d",
                "opponent": "0b47a636-200c-4ed8-a5b2-ad0d0d3fe8a2",
                "picks": [
                    {
                        "method": "decision",
                        "round": "5",
                        "winner": "27325abd-6bb9-41ad-8b16-e5d60b7fdc6e"
                    },
                    {
                        "method": "decision",
                        "round": "5",
                        "winner": "470995f9-42bf-475e-a74c-09b9a810de71"
                    },
                    {
                        "method": "decision",
                        "round": "5",
                        "winner": "16e431f6-8156-4516-be47-ee6a681da5d4"
                    },
                    {
                        "method": "decision",
                        "round": "5",
                        "winner": "fd381f53-13b3-4d0b-a13c-e569538a427f"
                    },
                    {
                        "method": "decision",
                        "round": "5",
                        "winner": "c4d63dd0-ab2c-4202-890a-af057ed9695f"
                    },
                    {
                        "method": "decision",
                        "round": "5",
                        "winner": "6cec6fd3-87d5-4f89-affc-f2fb8ed87430"
                    },
                    {
                        "method": "tko",
                        "round": "1",
                        "winner": "04e5594e-5c25-47e0-989a-d2539a09d843"
                    },
                    {
                        "method": "decision",
                        "round": "5",
                        "winner": "b116f26c-4623-43ed-aad9-fcf259df2717"
                    },
                    {
                        "method": "submission",
                        "round": "2",
                        "winner": "8a59068c-3f3d-4fb3-9350-85156ba79358"
                    },
                    {
                        "method": "decision",
                        "round": "5",
                        "winner": "38fe1d30-6446-48b1-86f7-9922f6cbb033"
                    },
                    {
                        "method": "decision",
                        "round": "5",
                        "winner": "f70e2574-9918-47dc-a82a-ddc0122c825c"
                    },
                    {
                        "method": "tko",
                        "round": "1",
                        "winner": "9076a64b-6cb2-4cc6-800d-07e45f5ecb1a"
                    },
                    {
                        "method": "decision",
                        "round": "5",
                        "winner": "a6ffb648-e13a-4819-9c71-14f2fac31e77"
                    }
                ],
                "result": "win",
                "totalPoints": 1825
            },
            {
                "event": "d6e1fc73-e245-4d89-aaeb-95500db846a9",
                "opponent": "fe803940-5b0f-41b0-87e7-c47dc29f7d98",
                "picks": [
                    {
                        "method": "decision",
                        "round": "5",
                        "winner": "5726ef49-c37c-4b32-bc2d-6da2ed94d9f8"
                    },
                    {
                        "method": "decision",
                        "round": "3",
                        "winner": "99e8cb27-e608-434d-af74-4105905ee4c4"
                    },
                    {
                        "method": "decision",
                        "round": "3",
                        "winner": "2712931d-e67f-4acd-b1c8-95a1feeb61f9"
                    },
                    {
                        "method": "decision",
                        "round": "3",
                        "winner": "f199bacd-14fe-43e8-9229-f73b525b6610"
                    },
                    {
                        "method": "tko",
                        "round": "1",
                        "winner": "0f9c45d1-cb6d-4394-8843-87de0a6d48c5"
                    },
                    {
                        "method": "decision",
                        "round": "3",
                        "winner": "ecd46c1b-aef8-4e0e-86e0-127c1fd8d25f"
                    },
                    {
                        "method": "tko",
                        "round": "1",
                        "winner": "479f1e20-d44f-4bcd-bb19-14c0e383463b"
                    },
                    {
                        "method": "decision",
                        "round": "3",
                        "winner": "e8f95075-0091-4b87-a3f4-0d1429191874"
                    },
                    {
                        "method": "decision",
                        "round": "3",
                        "winner": "fba5031d-8282-46e1-a47d-fb623cab560e"
                    },
                    {
                        "method": "decision",
                        "round": "3",
                        "winner": "0e4b3be7-6f5a-44cb-aa27-54a9141f92e2"
                    },
                    {
                        "method": "decision",
                        "round": "3",
                        "winner": "b9e53c3d-0705-46f6-a12c-150a1763786a"
                    },
                    {
                        "method": "decision",
                        "round": "3",
                        "winner": "5c85e7cf-faba-4d5c-b9bf-5a05730867f3"
                    }
                ],
                "result": "loss",
                "totalPoints": 2425
            },
            {
                "event": "c8a7bf79-875f-474a-846a-20f29d2f63e2",
                "opponent": "aa80edb2-645c-46a1-a300-c5463b587eca",
                "picks": [
                    {
                        "method": "decision",
                        "round": "5",
                        "winner": "c749e22c-687a-4ca0-8a22-eddfcf6a411c"
                    },
                    {
                        "method": "submission",
                        "round": "1",
                        "winner": "341b8047-ef69-404b-9153-761dc9a292f4"
                    },
                    {
                        "method": "decision",
                        "round": "3",
                        "winner": "d4290314-087d-464a-adde-b73a655c21ba"
                    },
                    {
                        "method": "decision",
                        "round": "3",
                        "winner": "2f44b98e-aafa-43db-a501-4258b447dd27"
                    },
                    {
                        "method": "submission",
                        "round": "2",
                        "winner": "7a520c96-be4b-4a2e-b4cc-30c22411e682"
                    },
                    {
                        "method": "decision",
                        "round": "3",
                        "winner": "03872b07-b957-4ab1-a917-6ff60c6e8b27"
                    },
                    {
                        "method": "tko",
                        "round": "1",
                        "winner": "4ec93d6a-1798-4dfa-8af4-266adab29278"
                    },
                    {
                        "method": "tko",
                        "round": "1",
                        "winner": "e24a3797-6177-4fa2-91b0-2b63e6803e43"
                    },
                    {
                        "method": "decision",
                        "round": "3",
                        "winner": "3ad1c034-5ce3-4a8b-b5d8-277e389040bf"
                    },
                    {
                        "method": "decision",
                        "round": "3",
                        "winner": "9c021495-c3b8-4450-9b80-d0c62a069f63"
                    },
                    {
                        "method": "decision",
                        "round": "3",
                        "winner": "f51be292-abaa-4131-81b7-94d6a7308a68"
                    },
                    {
                        "method": "decision",
                        "round": "3",
                        "winner": "2c6b44b9-8580-4f20-b068-5ff4237813ea"
                    }
                ],
                "result": "loss",
                "totalPoints": 1750
            },
            {
                "event": "21cdb9e7-8c3d-4013-834c-06ea931959fd",
                "opponent": "5508d11c-a6ad-4ee5-9089-1ed49aac4b97",
                "picks": [
                    {
                        "method": "decision",
                        "round": "5",
                        "winner": "8663a349-148a-48a7-9520-ddac064d3df0"
                    },
                    {
                        "method": "tko",
                        "round": "3",
                        "winner": "cd2b0df8-dfc8-43b7-a06f-593c1fa28aba"
                    },
                    {
                        "method": "decision",
                        "round": "3",
                        "winner": "7558c071-c52a-4056-ab40-97ead9084d0b"
                    },
                    {
                        "method": "tko",
                        "round": "1",
                        "winner": "891de8ef-d216-4fe8-b210-cce7f0b8ca1c"
                    },
                    {
                        "method": "decision",
                        "round": "3",
                        "winner": "50681e0b-8ea8-4f4b-8edd-5f46eeea6ba7"
                    },
                    {
                        "method": "decision",
                        "round": "3",
                        "winner": "532767b2-949b-4cc7-8854-8d688949555a"
                    },
                    {
                        "method": "decision",
                        "round": "3",
                        "winner": "ee091de0-a358-4563-920d-ea4513af1a9b"
                    },
                    {
                        "method": "submission",
                        "round": "1",
                        "winner": "35fdd268-f9b2-4942-aa85-33f413af0956"
                    },
                    {
                        "method": "tko",
                        "round": "1",
                        "winner": "0a5a52c0-f344-4968-b0e1-7bcd18a615ef"
                    },
                    {
                        "method": "tko",
                        "round": "1",
                        "winner": "82534d60-ebc6-46a0-9f19-ff47bd187799"
                    },
                    {
                        "method": "submission",
                        "round": "2",
                        "winner": "c98196bb-4563-4f3c-85be-dcd239f2fbed"
                    }
                ],
                "result": "win",
                "totalPoints": 2450
            },
            {
                "event": "b7ad9c91-97d6-4780-ad59-c8751d019b35",
                "opponent": "eb33f587-cc38-48ea-8759-b3bc277a19d0",
                "picks": [
                    {
                        "method": "tko",
                        "round": "1",
                        "winner": "b247841f-1807-401d-874c-59c47f343efb"
                    },
                    {
                        "method": "decision",
                        "round": "3",
                        "winner": "c3257967-c91f-4cd4-a676-8b3d6a300f62"
                    },
                    {
                        "method": "decision",
                        "round": "3",
                        "winner": "a32af82c-867d-48cf-af82-4dac470f4d4d"
                    },
                    {
                        "method": "tko",
                        "round": "1",
                        "winner": "0c593701-d024-4f07-bfba-13e931129e20"
                    },
                    {
                        "method": "decision",
                        "round": "3",
                        "winner": "84243ec1-0a21-40c0-a47e-42550b1edb51"
                    },
                    {
                        "method": "decision",
                        "round": "3",
                        "winner": "0c5e8e17-8810-4bea-815f-ea770c706781"
                    },
                    {
                        "method": "decision",
                        "round": "3",
                        "winner": "f12e373d-6389-4c34-b08f-e1459553b97a"
                    },
                    {
                        "method": "tko",
                        "round": "1",
                        "winner": "0b777ab1-2928-43e5-952e-dfc21a4a823b"
                    },
                    {
                        "method": "decision",
                        "round": "3",
                        "winner": "2d1c67b0-b3aa-4492-a927-ff556fad6326"
                    },
                    {
                        "method": "decision",
                        "round": "3",
                        "winner": "6b90e3be-aaef-4033-a974-a1ac7bd19847"
                    },
                    {
                        "method": "tko",
                        "round": "1",
                        "winner": "6778a23b-7aa2-46e6-a9a0-64d2e3fecb7a"
                    },
                    {
                        "method": "submission",
                        "round": "2",
                        "winner": "e2fc271c-ffa4-4ca4-beae-c4e4a948f2c4"
                    }
                ],
                "result": "loss",
                "totalPoints": 1025
            },
            {
                "event": "2ba28b50-814e-4541-823a-79ae72aba8a6",
                "opponent": "bb52b380-bbea-447d-b1ed-8e30ed2c58ea",
                "picks": [
                    {
                        "method": "decision",
                        "round": "5",
                        "winner": "63cd3846-7fd8-417a-9463-1f0643363190"
                    },
                    {
                        "method": "decision",
                        "round": "5",
                        "winner": "f51e4795-48d1-4ae6-af8f-2fb333d67071"
                    },
                    {
                        "method": "tko",
                        "round": "1",
                        "winner": "454457a7-fe28-4603-b26b-b93495fae1da"
                    },
                    {
                        "method": "decision",
                        "round": "3",
                        "winner": "64f2f2bf-bf3e-43df-8b76-144ae75a6db2"
                    },
                    {
                        "method": "tko",
                        "round": "1",
                        "winner": "c03a8fbf-7a15-406f-b745-940ead7ff9a3"
                    },
                    {
                        "method": "decision",
                        "round": "3",
                        "winner": "afd437f3-e05e-4aec-8e4d-3135a3cf895f"
                    },
                    {
                        "method": "decision",
                        "round": "3",
                        "winner": "130d256d-0f0c-497a-8f93-4407426b94e6"
                    },
                    {
                        "method": "decision",
                        "round": "3",
                        "winner": "86fa9eb5-43a1-4314-936e-53c14c4f8e96"
                    },
                    {
                        "method": "submission",
                        "round": "2",
                        "winner": "3b3521fb-4d2d-4d4a-9232-70891c4b6e22"
                    },
                    {
                        "method": "decision",
                        "round": "3",
                        "winner": "6739e1fb-c5fe-43b9-85cc-8cbd19aba581"
                    },
                    {
                        "method": "submission",
                        "round": "2",
                        "winner": "da9a15a6-d80c-4a83-b1af-e0f3a0df25fe"
                    }
                ],
                "result": "win",
                "totalPoints": 1925
            },
            {
                "event": "5399e821-4fc1-4b76-b141-c1de79d8c663",
                "opponent": "bfdee2d6-ef08-45b2-9a11-8af0a85213e5",
                "picks": [
                    {
                        "method": "decision",
                        "round": "5",
                        "winner": "8e2eb8ec-e522-4fdf-895d-04ab7a5f7c3e"
                    },
                    {
                        "method": "tko",
                        "round": "1",
                        "winner": "18209471-18b3-463a-95a6-f93c1bf6128d"
                    },
                    {
                        "method": "decision",
                        "round": "3",
                        "winner": "951b2fba-6563-46e5-805a-0c29521c0497"
                    },
                    {
                        "method": "decision",
                        "round": "3",
                        "winner": "c4d63dd0-ab2c-4202-890a-af057ed9695f"
                    },
                    {
                        "method": "decision",
                        "round": "3",
                        "winner": "59713f7a-525f-4bb4-bdd9-8e5a36418e5d"
                    },
                    {
                        "method": "tko",
                        "round": "1",
                        "winner": "dc0c8a9c-a722-43d9-8825-d0a2cc5fcf93"
                    },
                    {
                        "method": "decision",
                        "round": "3",
                        "winner": "6d259e35-72c7-4234-880c-18aafbd8876f"
                    },
                    {
                        "method": "decision",
                        "round": "3",
                        "winner": "4e524f16-7792-490d-bebe-b82d89390081"
                    },
                    {
                        "method": "submission",
                        "round": "2",
                        "winner": "dff2ef9b-aed8-4243-aa19-121d6608fffd"
                    },
                    {
                        "method": "decision",
                        "round": "3",
                        "winner": "fdaf78ef-db5d-47a7-9620-21f0ce006971"
                    },
                    {
                        "method": "tko",
                        "round": "1",
                        "winner": "706f0fa0-479d-468d-a184-2772f5d1afbb"
                    }
                ],
                "result": "loss",
                "totalPoints": 1250
            },
            {
                "event": "57de1a68-87e0-4e4b-985e-2ec927073145",
                "opponent": "b9d24905-a163-4c90-a0a7-253f35af8aab",
                "picks": [
                    {
                        "method": "tko",
                        "round": "1",
                        "winner": "03713f69-ad51-40e5-a44a-d216a1d5b949"
                    },
                    {
                        "method": "decision",
                        "round": "3",
                        "winner": "2c1392d5-c8a0-4ab2-bd6d-c275917f93ba"
                    },
                    {
                        "method": "decision",
                        "round": "3",
                        "winner": "8f268e32-e224-4a05-9baa-312a02c482c5"
                    },
                    {
                        "method": "decision",
                        "round": "3",
                        "winner": "98ca0a67-b160-4fee-9eb8-2a5a7815f4cb"
                    },
                    {
                        "method": "decision",
                        "round": "3",
                        "winner": "88d47161-9999-4cd4-a202-4c0d8e4d57eb"
                    },
                    {
                        "method": "tko",
                        "round": "1",
                        "winner": "ca2e4b2a-ada3-4098-94f1-199df921df78"
                    },
                    {
                        "method": "submission",
                        "round": "2",
                        "winner": "e79dbd78-f870-45cd-89e0-b4aaa4e8822b"
                    },
                    {
                        "method": "tko",
                        "round": "1",
                        "winner": "82534d60-ebc6-46a0-9f19-ff47bd187799"
                    },
                    {
                        "method": "decision",
                        "round": "3",
                        "winner": "7483400b-03b7-4103-8b8f-9c83809e5b05"
                    },
                    {
                        "method": "decision",
                        "round": "3",
                        "winner": "3f2c653b-5307-4baa-84a8-a8f847c35872"
                    },
                    {
                        "method": "submission",
                        "round": "2",
                        "winner": "c6c67210-f2ca-4339-be46-286954daf0a2"
                    }
                ],
                "result": "win",
                "totalPoints": 2725
            },
            {
                "event": "3f481f9d-57f3-4b2e-b57f-f372a7ab45c4",
                "opponent": "f33a1ae9-74fd-4cec-83f5-73f38d15db46",
                "picks": [
                    {
                        "method": "decision",
                        "round": "5",
                        "winner": "c3257967-c91f-4cd4-a676-8b3d6a300f62"
                    },
                    {
                        "method": "decision",
                        "round": "3",
                        "winner": "1f2ad9d8-0906-4d50-9ca6-b99424471caf"
                    },
                    {
                        "method": "decision",
                        "round": "3",
                        "winner": "c5e2b17a-ca7e-4489-93a4-fbebf2411bc4"
                    },
                    {
                        "method": "decision",
                        "round": "3",
                        "winner": "f4814dbb-084a-40ef-9440-cf2429fc03d9"
                    },
                    {
                        "method": "decision",
                        "round": "3",
                        "winner": "bce3c3ff-2b8d-4a01-abfc-4cd08d670aa0"
                    },
                    {
                        "method": "decision",
                        "round": "3",
                        "winner": "bbd6c38c-fb3c-4493-9e13-6180320c7695"
                    },
                    {
                        "method": "tko",
                        "round": "1",
                        "winner": "04e5594e-5c25-47e0-989a-d2539a09d843"
                    },
                    {
                        "method": "decision",
                        "round": "3",
                        "winner": "0355bdd2-449d-4dbe-8d28-2e9e791a9e37"
                    },
                    {
                        "method": "submission",
                        "round": "2",
                        "winner": "27f51a1b-6849-4167-bb38-cf12bff1d2c8"
                    },
                    {
                        "method": "decision",
                        "round": "3",
                        "winner": "f70e2574-9918-47dc-a82a-ddc0122c825c"
                    },
                    {
                        "method": "decision",
                        "round": "3",
                        "winner": "0f9a5158-fbe5-45c9-8c7f-85b7fc521b81"
                    }
                ],
                "result": "win",
                "totalPoints": 2925
            },
            {
                "event": "757dbbf5-e151-4791-aa0a-f6418b934966",
                "opponent": "bcae34c1-2863-41a4-b83a-80f5604beb7b",
                "picks": [
                    {
                        "method": "tko",
                        "round": "2",
                        "winner": "d66b95ed-4807-4ad3-85a0-7ccb626f21bd"
                    },
                    {
                        "method": "tko",
                        "round": "1",
                        "winner": "3f2bbd6d-33ce-4193-9988-b4548ff0577d"
                    },
                    {
                        "method": "decision",
                        "round": "3",
                        "winner": "79cd70e1-7373-4705-a710-48c0001b1c8c"
                    },
                    {
                        "method": "decision",
                        "round": "3",
                        "winner": "cc41e087-4c9c-45ca-8849-979d29780346"
                    },
                    {
                        "method": "tko",
                        "round": "1",
                        "winner": "532767b2-949b-4cc7-8854-8d688949555a"
                    },
                    {
                        "method": "tko",
                        "round": "1",
                        "winner": "24e3d930-246e-488f-a199-5ae756ca1352"
                    },
                    {
                        "method": "decision",
                        "round": "3",
                        "winner": "a90f6d42-572e-4828-83c8-1303da49d7da"
                    },
                    {
                        "method": "decision",
                        "round": "3",
                        "winner": "6a099ac0-1242-4e05-8d63-e37363e8f875"
                    },
                    {
                        "method": "tko",
                        "round": "1",
                        "winner": "dcf18013-0fa3-4e8e-9a49-293238f6dbb9"
                    },
                    {
                        "method": "decision",
                        "round": "3",
                        "winner": "0c5e8e17-8810-4bea-815f-ea770c706781"
                    },
                    {
                        "method": "tko",
                        "round": "1",
                        "winner": "cfd3d6c5-194d-4ea5-83cb-d8c02d989102"
                    },
                    {
                        "method": "decision",
                        "round": "3",
                        "winner": "c0549ee8-5942-4100-aba5-92b82329d28c"
                    }
                ],
                "result": "loss",
                "totalPoints": 2575
            },
            {
                "event": "7edc6add-7f9b-4eae-ae3a-36b717b9a65c",
                "opponent": "fc0c0686-1d50-40c2-9e46-a1fbb7d8affd",
                "picks": [
                    {
                        "method": "decision",
                        "round": "5",
                        "winner": "6d697b15-163c-4909-b0d9-6dadd773d10c"
                    },
                    {
                        "method": "decision",
                        "round": "3",
                        "winner": "68842463-7eaa-463c-b588-cdd8b2a30b35"
                    },
                    {
                        "method": "decision",
                        "round": "3",
                        "winner": "91de1cc2-cafd-407e-8fcb-56eab4a98d5e"
                    },
                    {
                        "method": "decision",
                        "round": "3",
                        "winner": "937c00e2-93c7-4ec6-82ef-aaaebc502c04"
                    },
                    {
                        "method": "decision",
                        "round": "3",
                        "winner": "cf6873a2-8841-42ed-a3d9-b53b360d2d56"
                    },
                    {
                        "method": "decision",
                        "round": "3",
                        "winner": "685caad1-91a7-4aeb-a119-6f791a301bd0"
                    },
                    {
                        "method": "decision",
                        "round": "3",
                        "winner": "a4e622a9-726d-4519-9867-0c7f2ff7f41e"
                    },
                    {
                        "method": "tko",
                        "round": "1",
                        "winner": "0eb278bc-9385-4fe1-9c07-09840d30dc89"
                    },
                    {
                        "method": "decision",
                        "round": "3",
                        "winner": "47a193bc-143b-4886-b16a-3acc374a5917"
                    },
                    {
                        "method": "submission",
                        "round": "2",
                        "winner": "8fc05493-9622-4a13-bacc-c3e403291b94"
                    },
                    {
                        "method": "tko",
                        "round": "1",
                        "winner": "2c84e983-10cc-4d68-9c1b-f57bd5d8f4c7"
                    }
                ],
                "result": "win",
                "totalPoints": 2125
            },
            {
                "event": "189876b9-61e2-4340-bc28-ebd567eb526c",
                "opponent": "30781090-c9a9-4032-b958-41d6bf8a81bb",
                "picks": [
                    {
                        "method": "tko",
                        "round": "2",
                        "winner": "ac450245-b944-483b-add7-c00604c88853"
                    },
                    {
                        "method": "decision",
                        "round": "3",
                        "winner": "c5fc924b-a4e6-46c7-ac4d-234321e3124b"
                    },
                    {
                        "method": "decision",
                        "round": "3",
                        "winner": "ffc3f8d3-78de-4e44-a02f-2addb804261d"
                    },
                    {
                        "method": "decision",
                        "round": "3",
                        "winner": "769a5170-4294-4352-b369-d59ce9293602"
                    },
                    {
                        "method": "decision",
                        "round": "3",
                        "winner": "f4814dbb-084a-40ef-9440-cf2429fc03d9"
                    },
                    {
                        "method": "decision",
                        "round": "3",
                        "winner": "062af389-a7c7-4740-acfc-49415ebd1d5e"
                    },
                    {
                        "method": "decision",
                        "round": "3",
                        "winner": "d513c14c-2e7b-4e6b-a035-23aff44a7311"
                    },
                    {
                        "method": "decision",
                        "round": "3",
                        "winner": "b22567eb-b354-423e-a392-56b6dd389b54"
                    },
                    {
                        "method": "decision",
                        "round": "3",
                        "winner": "facafa73-ae5b-4a5f-9824-c79eb710de1e"
                    },
                    {
                        "method": "tko",
                        "round": "1",
                        "winner": "17c50af1-05ed-4dff-8f40-1f990c464f42"
                    },
                    {
                        "method": "decision",
                        "round": "3",
                        "winner": "68b9e082-1f90-414e-9d09-7954b161ff4b"
                    },
                    {
                        "method": "submission",
                        "round": "2",
                        "winner": "60c263c5-05e7-4aba-a505-0221791f83a5"
                    }
                ],
                "result": "loss",
                "totalPoints": 1100
            },
            {
                "opponent": "aa7f2540-36d9-4537-8853-9a0bca25e974",
                "picks": [
                    {
                        "winner": "d4c6181b-e96e-4859-9d42-08ab2f62fed4",
                        "confidence": 3
                    },
                    {
                        "winner": "f73ecadf-171e-44e5-a24d-e00df53d7b6f",
                        "confidence": 2
                    },
                    {
                        "winner": "02d34e0a-36c8-4647-b399-f4d0777a2f49",
                        "confidence": 5
                    },
                    {
                        "winner": "65a7acdf-d075-4de0-a5df-3b47e1830087",
                        "confidence": 6
                    },
                    {
                        "winner": "3ad1c034-5ce3-4a8b-b5d8-277e389040bf",
                        "confidence": 4
                    },
                    {
                        "winner": "fe4a4dc3-0969-4dde-8c9e-c986c250f6c0",
                        "confidence":10
                    },
                    {
                        "winner": "ea67fe31-df6e-461b-952a-eae6f8f33950",
                        "confidence": 1
                    },
                    {
                        "winner": "84e219bc-e934-4f39-9d20-ed3cc3e97788",
                        "confidence": 9
                    },
                    {
                        "winner": "68c4e344-3dec-4ed4-8f1a-ca63b0551092",
                        "confidence": 8
                    },
                    {
                        "winner": "2588366f-72f0-4126-8d6c-b12a62856cc6",
                        "confidence": 7
                    }
                ],
                "totalPoints": 42,
                "result": "win",
                "event": "300c8dd8-8b84-472f-bba0-889c5fcdf14f"
            },
            {
                "event": "b635ad99-0384-4f0e-94b1-2799ca3563d6",
                "opponent": "0b47a636-200c-4ed8-a5b2-ad0d0d3fe8a2",
                "picks": [
                    {
                        "method": "tko",
                        "round": "1",
                        "winner": "7ad0e74d-f245-4cc0-957e-862938b8f14f"
                    },
                    {
                        "method": "decision",
                        "round": "5",
                        "winner": "8389e0a4-aad5-48e6-98f7-bb684f19f7d6"
                    },
                    {
                        "method": "tko",
                        "round": "1",
                        "winner": "8d56279f-0bb4-4539-a4dc-647d5c831c66"
                    },
                    {
                        "method": "decision",
                        "round": "3",
                        "winner": "04e5254a-d1c3-4054-9209-624e1e41a7d7"
                    },
                    {
                        "method": "decision",
                        "round": "3",
                        "winner": "f12e373d-6389-4c34-b08f-e1459553b97a"
                    },
                    {
                        "method": "tko",
                        "round": "1",
                        "winner": "f6495c69-16b0-460c-81ac-4a30e82d4593"
                    },
                    {
                        "method": "decision",
                        "round": "3",
                        "winner": "816d2be9-e590-4518-8881-0d57242f223c"
                    },
                    {
                        "method": "decision",
                        "round": "3",
                        "winner": "baad4e89-8b77-4001-8fae-c4a4b8650e52"
                    },
                    {
                        "method": "decision",
                        "round": "3",
                        "winner": "5bcee460-d1eb-4f84-a432-a6be1499bf03"
                    },
                    {
                        "method": "decision",
                        "round": "3",
                        "winner": "52d7432e-9c9c-46ef-8750-270f75e3ce09"
                    },
                    {
                        "method": "decision",
                        "round": "3",
                        "winner": "a6ffb648-e13a-4819-9c71-14f2fac31e77"
                    },
                    {
                        "method": "decision",
                        "round": "3",
                        "winner": "57a2c6ac-c72e-4305-800a-8ea6616737bb"
                    },
                    {
                        "method": "decision",
                        "round": "3",
                        "winner": "ed09917f-2829-4e93-a9e1-c08b8ad47bdb"
                    }
                ],
                "result": "win",
                "totalPoints": 2425
            },
            {
                "opponent": "fe803940-5b0f-41b0-87e7-c47dc29f7d98",
                "picks": [
                    {
                        "winner": "64f2f2bf-bf3e-43df-8b76-144ae75a6db2",
                        "confidence": 3
                    },
                    {
                        "winner": "188b20f8-b334-44de-a5a2-958c2021d2ff",
                        "confidence": 10
                    },
                    {
                        "winner": "6a099ac0-1242-4e05-8d63-e37363e8f875",
                        "confidence": 9
                    },
                    {
                        "winner": "8e39c341-4c38-422d-992f-328fae806fb8",
                        "confidence": 11
                    },
                    {
                        "winner": "3bbfcf2f-8b89-4bcf-9d21-214cc41a7868",
                        "confidence": 2
                    },
                    {
                        "winner": "5a6ebaad-ad2e-4077-b2cb-2002034eb3d6",
                        "confidence": 4
                    },
                    {
                        "winner": "b1d9f299-8e89-44ff-8f82-9bfc5ce975d2",
                        "confidence": 8
                    },
                    {
                        "winner": "ade49ea1-30a0-4b7f-b40b-4f0b8972351e",
                        "confidence": 5
                    },
                    {
                        "winner": "c051e2b5-0cc2-4edc-9b00-aea6116b9eda",
                        "confidence": 6
                    },
                    {
                        "winner": "114cf891-307b-41c6-b48f-67e1fd2abbcf",
                        "confidence": 7
                    },
                    {
                        "winner": "a1e72ad0-6305-4c53-9d30-c59248fea919",
                        "confidence": 1
                    }
                ],
                "totalPoints": 36,
                "result": "loss",
                "event": "aea31ed3-abb0-4b0d-9762-e2ed6e9c8ef4"
            },
            {
                "opponent": "aa80edb2-645c-46a1-a300-c5463b587eca",
                "picks": [
                    {
                        "winner": "a061615a-9675-4b8c-af7e-a15c8bce5b63",
                        "confidence": 11
                    },
                    {
                        "winner": "c4a24558-88af-4397-b73a-ac3baedece8b",
                        "confidence": 1
                    },
                    {
                        "winner": "40064c82-3177-40ee-b0fe-973e7883770a",
                        "confidence": 3
                    },
                    {
                        "winner": "dff1cff0-7896-4fe2-bed9-48b850470e4d",
                        "confidence": 2
                    },
                    {
                        "winner": "7cb083c8-f429-4397-8bd1-fcdfb1403735",
                        "confidence": 6
                    },
                    {
                        "winner": "363aa6b2-4c3a-4ba6-b790-86ee593d7374",
                        "confidence": 10
                    },
                    {
                        "winner": "7a520c96-be4b-4a2e-b4cc-30c22411e682",
                        "confidence": 12
                    },
                    {
                        "winner": "3b0b8373-6330-4b5e-a9c8-2e01d4634216",
                        "confidence": 7
                    },
                    {
                        "winner": "bb4fab52-3bda-4000-b114-3626f45ce06d",
                        "confidence": 8
                    },
                    {
                        "winner": "4e6df24e-abd1-414b-b3c0-c0338b45ef9a",
                        "confidence": 5
                    },
                    {
                        "winner": "1d6d62ba-2d5e-4408-afaa-0a5526f541ac",
                        "confidence": 9
                    },
                    {
                        "winner": "c630912a-b2c4-473b-86e1-a616c86c1974",
                        "confidence": 4
                    }
                ],
                "event": "dab17ebc-bf4c-4b38-9842-e518e3e4db9d", 
                "result": "loss",
                "totalPoints": 50
            },
            {
                "event": "7126d85b-86ec-4f74-adec-3b6d6ac5b749",
                "opponent": "5508d11c-a6ad-4ee5-9089-1ed49aac4b97",
                "picks": [
                    {
                        "method": "decision",
                        "round": "5",
                        "winner": "cd6b5534-e8fa-4372-a23e-59657f28f175"
                    },
                    {
                        "method": "submission",
                        "round": "1",
                        "winner": "c6b61f79-1def-4e3a-9120-1c77db46b326"
                    },
                    {
                        "method": "tko",
                        "round": "1",
                        "winner": "bed35b38-4bb5-4ff1-be0d-44af32436d9c"
                    },
                    {
                        "method": "decision",
                        "round": "3",
                        "winner": "1534cdb0-6388-4f99-9e24-56eb8d51e3a2"
                    },
                    {
                        "method": "decision",
                        "round": "3",
                        "winner": "9a725e07-1b57-4791-9b02-9d2949499e3c"
                    },
                    {
                        "method": "decision",
                        "round": "3",
                        "winner": "458134f8-315e-4a01-bc4c-086cf68856d6"
                    },
                    {
                        "method": "submission",
                        "round": "2",
                        "winner": "5a6ebaad-ad2e-4077-b2cb-2002034eb3d6"
                    },
                    {
                        "method": "tko",
                        "round": "1",
                        "winner": "69e65868-fea6-4094-bc32-71ff308c38da"
                    },
                    {
                        "method": "decision",
                        "round": "3",
                        "winner": "9c1e4470-97af-4a9b-a526-563b29be1dc9"
                    },
                    {
                        "method": "tko",
                        "round": "1",
                        "winner": "4b6b7858-dd5b-47fc-aa0e-7a636959dc6e"
                    },
                    {
                        "method": "decision",
                        "round": "3",
                        "winner": "dbb22103-cddf-49e1-b8e4-eb466448e110"
                    },
                    {
                        "method": "tko",
                        "round": "1",
                        "winner": "fe4a4dc3-0969-4dde-8c9e-c986c250f6c0"
                    },
                    {
                        "method": "decision",
                        "round": "3",
                        "winner": "3a70fe97-e626-431d-95c8-68ebb375ab06"
                    },
                    {
                        "method": "decision",
                        "round": "3",
                        "winner": "25353249-102c-4637-a8f6-952661f00cdd"
                    },
                    {
                        "method": "submission",
                        "round": "2",
                        "winner": "b116f26c-4623-43ed-aad9-fcf259df2717"
                    }
                ],
                "result": "loss",
                "totalPoints": 2425
            },
            {
                "event": "83621fcb-52a2-4279-8c3d-5c9299618828",
                "opponent": "eb33f587-cc38-48ea-8759-b3bc277a19d0",
                "picks": [
                    {
                        "method": "tko",
                        "round": "1",
                        "winner": "b44a22f1-613b-4b3b-a06f-31de8976bc6e"
                    },
                    {
                        "method": "decision",
                        "round": "3",
                        "winner": "29084146-defe-41ec-af67-0563464e39c1"
                    },
                    {
                        "method": "decision",
                        "round": "3",
                        "winner": "91681e1a-1a2d-4a42-94c3-3d41b7dae585"
                    },
                    {
                        "method": "decision",
                        "round": "3",
                        "winner": "01042349-8f68-4ae3-bf43-b598a89eb979"
                    },
                    {
                        "method": "tko",
                        "round": "2",
                        "winner": "9c147be2-01d4-4552-a500-4e6b2530a220"
                    },
                    {
                        "method": "decision",
                        "round": "3",
                        "winner": "ff02e026-7cb7-4bb7-b40d-42f33c4d5fa8"
                    },
                    {
                        "method": "decision",
                        "round": "3",
                        "winner": "8320d914-586d-441b-9ec9-198809719505"
                    },
                    {
                        "method": "decision",
                        "round": "3",
                        "winner": "140af4fe-81fc-4560-974a-d5f759f7e99b"
                    },
                    {
                        "method": "decision",
                        "round": "3",
                        "winner": "d9b931c3-da8e-4f19-b869-0f9d39d41505"
                    },
                    {
                        "method": "decision",
                        "round": "3",
                        "winner": "0f9a5158-fbe5-45c9-8c7f-85b7fc521b81"
                    }
                ],
                "result": "loss",
                "totalPoints": 800
            }
        ],
        "record": {
            "losses": 11,
            "ties": 0,
            "wins": 10
        },
        "teamName": "Mike's Team",
        "totalPoints": 34900,
        "totalPointsAgainst": 34550
    }