{
  "type": "service_account",
  "project_id": "mma-v1",
  "private_key_id": "3753efb6cd152ad9a365e3c94c1c2e6f4e7a8224",
  "private_key": "-----BEGIN PRIVATE KEY-----\nMIIEvgIBADANBgkqhkiG9w0BAQEFAASCBKgwggSkAgEAAoIBAQCie7GH+nfZokVm\nwr2rlfup2ekJyNgxsXUNJKG/J+f3KBAyWmqzvqDJS9ZD/f9yRXlGTPSCMqgdGW1c\nfQlbRmt9mgz1sfVVVSUApJf/q6jAF9zbvEIfAcxG4hLp7Qy7Q3+M8TfaaKAUKlwz\nnHRufbhn7myyLKPw2nLP6shOtn7F+wds/ulEL4pHlBitM34RxcuO74egwCxzdmUw\nS64dVpgo68QRW4ewRMTYn6uBwTsG2UqCEeTKezg+9YuZWgg6fDtMtHjZppyClJsN\nbvjIFkMTPnDQ86Rd39hEWYH5Y5lol+UJPfg9TDuDahEJXHtOl/f4WKuAPV/T8Bee\nU7Qn/vPBAgMBAAECggEAKklGyrzEtD8nELdd5WoDNREhNQqwOT6V1/XQoo8gL5Kd\npH0jh+P0tG6oNMnF0VeDWGhuufO1DN2xOIDSDo8lKmsNNGQ8FRkzqBct97wVDukm\n8YjtLGSrZUcw5PBsf8/xQh0FDDJudtEPbd8p7heKBoJmh3hWsjgn6TSRLOsR0zQ3\nOY8XxIo5xSPsCNRoAarfQhTOK5WAC1ACFMls48izVyZGE7vdCDFwLo8N3rRR8VYu\n0rUkOuHwoQRDU0jqtUvDdPM429HNtci9ScHzCQBNSEipy7WQeUiw7lcGrPNWtrqj\nNfQc91pBs4hzBDuqfAUKCTW76VHX1FV3QC8ZgjsigQKBgQDZi3GkpfHuaRv9PLdA\nKFBLK6YKlOMtR+DdP/XybYaPJ7ysuR39Eo6813wpdB3MZZDigc42P+CNlTbcG6Dg\nSP/uXNnLy9SR5K88+IsTkaNe8xY9tANd/sSllo6vCAtS8GIwQOgUCWoCylzL6uTk\nsCs0AfH5a8TG9iq6LKZfoi/EpwKBgQC/NIyHFc40X7ReAn1uF0jR2C3eD6aMXcZS\nEr5p1mSUxjPvkdjoNrWqWJCW+t+zOmBrOs0vBXfpibtCHAngZ8hL9zLYDiQHnv/6\nYb/rxcSwH9PgMhTVwiaSZKrPCmkH4SKVy1j4NAPyZF3ctBm1e5w5bBQB0vGdk5rs\nupZe1ETJVwKBgQDGlY1C4J0NpnN/YtphPau2Qv0KcclDf3bcYVOxXpvTuFF6Vm3y\no+sapZZY/P9qo1hz/ExypzLj688tdCcSNnEydR339HRyTZBOFxBV5797oGmwH9Bn\nEHcQNXTAgJZdusPXCpkQGVvlejbliuIxhEOb8R6jMeZqPTLZyoKBkDsMxwKBgEWi\nobtg2aSBZnMGfR/nIwIptSq2kHV2gY/Ke8aX6jG0rZ2GhHSt2COd9arG20mu7Qag\nd7G0UCOhoa1GAOLVaUEhWkcNf1m3MorBpt/7OtLaBJQWKThgaSPPvdWBeRcBi1L6\nqABdEULqArUqcmKCDjdrgS3Y4V3+L+IfYjxPGm4pAoGBAJcRyByImp0rM7heyl+Z\nUGbN2v15aLaaJP2BnN2wW7yP2/enPhbaLCsH7TzgAvOh9hUaALWFnUWPCFB2YMs+\nemvRt7iPf5XGPwTz0ultlL/G9D3d7Ap0tjQRKmy0lTm7uVqtqnU9TVd8ilSSz9AF\nAQrjdNAwMX4CNMZRncq0iOb+\n-----END PRIVATE KEY-----\n",
  "client_email": "firebase-adminsdk-o0uek@mma-v1.iam.gserviceaccount.com",
  "client_id": "100474195884997817906",
  "auth_uri": "https://accounts.google.com/o/oauth2/auth",
  "token_uri": "https://oauth2.googleapis.com/token",
  "auth_provider_x509_cert_url": "https://www.googleapis.com/oauth2/v1/certs",
  "client_x509_cert_url": "https://www.googleapis.com/robot/v1/metadata/x509/firebase-adminsdk-o0uek%40mma-v1.iam.gserviceaccount.com",
  "universe_domain": "googleapis.com"
}
