{
	"date": "June 13th, 2020",
	"venue": "",
	"lineup": [
		{
			"started": null,
			"winner": null,
			"method": null,
			"round": null,
			"card": "Main Card",
			"fight": {
				"weight": null,
				"fighter2Id": null,
				"fighter1Id": null,
				"rounds": 5,
				"bonus": [
					{
						"recipient": "both",
						"amount": 50
					}
				],
				"championship": false
			}
		}
	],
	"eventTitle": "UFC Fight Night: Eye vs Calvillo",
	"id": "null"
}